module local.com/roadmap-JWT

go 1.21.4

require (
	cloud.google.com/go/compute/metadata v0.3.0 // indirect
	github.com/coreos/go-oidc/v3 v3.10.0 // indirect
	github.com/go-jose/go-jose/v4 v4.0.2 // indirect
	github.com/golang-jwt/jwt/v5 v5.2.1 // indirect
	github.com/golang-migrate/migrate/v4 v4.17.1 // indirect
	github.com/golang/protobuf v1.5.4 // indirect
	github.com/gorilla/mux v1.8.1 // indirect
	github.com/hashicorp/errwrap v1.1.0 // indirect
	github.com/hashicorp/go-multierror v1.1.1 // indirect
	github.com/joho/godotenv v1.5.1 // indirect
	github.com/lib/pq v1.10.9 // indirect
	go.uber.org/atomic v1.11.0 // indirect
	golang.org/x/crypto v0.24.0 // indirect
	golang.org/x/oauth2 v0.21.0 // indirect
	google.golang.org/appengine v1.6.8 // indirect
	google.golang.org/protobuf v1.34.2 // indirect
)
